# Blender v2.79 (sub 0) OBJ File: 'watermelon.blend'
# www.blender.org
mtllib watermelon.mtl
o Sphere
v 0.090199 -0.949253 -0.217760
v 0.288320 -0.544895 -0.696067
v 0.340097 0.191342 -0.821067
v 0.192649 0.815493 -0.465097
v 0.192649 -0.815493 -0.465097
v 0.340097 -0.191342 -0.821067
v 0.288320 0.544895 -0.696067
v 0.090199 0.949253 -0.217760
v 0.465097 0.815493 -0.192650
v 0.465097 -0.815493 -0.192649
v 0.821067 -0.191342 -0.340097
v 0.696067 0.544895 -0.288320
v 0.217760 0.949253 -0.090199
v 0.217760 -0.949253 -0.090199
v 0.696067 -0.544895 -0.288320
v 0.821067 0.191342 -0.340097
v 0.465097 -0.815493 0.192649
v 0.821067 -0.191342 0.340097
v 0.696067 0.544895 0.288320
v 0.217760 0.949253 0.090199
v 0.217760 -0.949253 0.090199
v 0.696067 -0.544895 0.288320
v 0.821067 0.191342 0.340097
v 0.465097 0.815493 0.192649
v 0.090199 0.949253 0.217760
v 0.090199 -0.949253 0.217760
v 0.288320 -0.544895 0.696067
v 0.340097 0.191342 0.821067
v 0.192649 0.815493 0.465097
v 0.192649 -0.815493 0.465097
v 0.340097 -0.191342 0.821067
v 0.288320 0.544895 0.696067
v -0.288320 -0.544895 0.696067
v -0.340097 0.191342 0.821067
v -0.192649 0.815493 0.465097
v -0.192649 -0.815493 0.465097
v -0.340097 -0.191342 0.821067
v -0.288320 0.544895 0.696067
v -0.090199 0.949253 0.217760
v -0.090199 -0.949253 0.217760
v -0.465097 -0.815493 0.192649
v -0.821067 -0.191342 0.340097
v -0.696067 0.544895 0.288320
v -0.217760 0.949253 0.090199
v -0.217760 -0.949253 0.090199
v -0.696067 -0.544895 0.288320
v -0.821067 0.191342 0.340097
v -0.465097 0.815493 0.192649
v -0.821067 -0.191342 -0.340097
v -0.696067 0.544895 -0.288320
v -0.217760 0.949253 -0.090199
v -0.217760 -0.949253 -0.090199
v -0.696067 -0.544895 -0.288320
v -0.821067 0.191342 -0.340097
v -0.465097 0.815493 -0.192650
v -0.465097 -0.815493 -0.192649
v -0.090199 -0.949253 -0.217760
v -0.288320 -0.544895 -0.696067
v -0.340097 0.191342 -0.821067
v -0.192649 0.815493 -0.465097
v -0.192649 -0.815493 -0.465097
v -0.340097 -0.191342 -0.821067
v -0.288320 0.544895 -0.696067
v -0.090199 0.949253 -0.217760
v 0.144639 0.955596 -0.144639
v 0.357086 0.815493 -0.357086
v 0.534417 0.544895 -0.534417
v 0.630388 0.191342 -0.630388
v 0.630388 -0.191342 -0.630388
v 0.534417 -0.544895 -0.534417
v 0.357086 -0.815493 -0.357086
v 0.346825 0.000000 -0.837310
v 0.504996 0.815493 -0.000000
v 0.755780 0.544895 -0.000000
v 0.891503 0.191342 -0.000000
v 0.891503 -0.191342 -0.000000
v 0.755780 -0.544895 -0.000000
v 0.504996 -0.815493 -0.000000
v 0.204551 -0.955596 -0.000000
v 0.592067 0.693651 -0.245243
v 0.334035 0.903126 -0.138362
v 0.334035 -0.903126 -0.138362
v 0.592067 -0.693650 -0.245242
v 0.773574 -0.375401 -0.320425
v 0.837310 0.000000 -0.346825
v 0.773573 0.375401 -0.320425
v 0.357086 0.815493 0.357086
v 0.534417 0.544895 0.534417
v 0.630388 0.191342 0.630388
v 0.630388 -0.191342 0.630388
v 0.534417 -0.544895 0.534417
v 0.357086 -0.815493 0.357086
v 0.334035 -0.903126 0.138362
v 0.592067 -0.693650 0.245242
v 0.773573 -0.375401 0.320425
v 0.837310 0.000000 0.346825
v 0.773573 0.375401 0.320425
v 0.592067 0.693651 0.245242
v 0.334035 0.903126 0.138362
v 0.000000 0.815493 0.504996
v 0.000000 0.544895 0.755780
v 0.000000 0.191342 0.891503
v 0.000000 -0.191342 0.891503
v 0.000000 -0.544895 0.755780
v 0.000000 -0.815493 0.504996
v 0.138362 0.903126 0.334035
v 0.138362 -0.903126 0.334035
v 0.245242 -0.693650 0.592067
v 0.320425 -0.375401 0.773573
v 0.346825 0.000000 0.837310
v 0.320425 0.375401 0.773573
v 0.245242 0.693651 0.592067
v -0.357086 0.815493 0.357086
v -0.534417 0.544895 0.534417
v -0.630388 0.191342 0.630388
v -0.630388 -0.191342 0.630388
v -0.534417 -0.544895 0.534417
v -0.357086 -0.815493 0.357086
v -0.245242 -0.693650 0.592067
v -0.320425 -0.375401 0.773573
v -0.346825 0.000000 0.837310
v -0.320425 0.375401 0.773573
v -0.245242 0.693651 0.592067
v -0.138362 0.903126 0.334035
v -0.138362 -0.903126 0.334035
v -0.504996 0.815493 -0.000000
v -0.755780 0.544895 -0.000000
v -0.891503 0.191342 -0.000000
v -0.891503 -0.191342 -0.000000
v -0.755780 -0.544895 -0.000000
v -0.504996 -0.815493 -0.000000
v -0.334035 -0.903126 0.138362
v -0.592067 -0.693650 0.245242
v -0.773573 -0.375401 0.320425
v -0.837310 0.000000 0.346825
v -0.773573 0.375401 0.320425
v -0.592067 0.693651 0.245242
v -0.334035 0.903126 0.138362
v -0.357086 0.815493 -0.357086
v -0.534417 0.544895 -0.534417
v -0.630388 0.191342 -0.630388
v -0.630388 -0.191342 -0.630388
v -0.534417 -0.544895 -0.534417
v -0.357086 -0.815493 -0.357086
v -0.773573 -0.375401 -0.320425
v -0.837310 0.000000 -0.346825
v -0.773573 0.375401 -0.320425
v -0.592067 0.693651 -0.245242
v -0.334035 0.903126 -0.138362
v -0.334035 -0.903126 -0.138362
v -0.592067 -0.693650 -0.245242
v -0.000000 0.815493 -0.504996
v -0.000000 0.544895 -0.755780
v -0.000000 -0.544895 -0.755780
v -0.000000 -0.815493 -0.504996
v -0.138362 -0.903126 -0.334035
v -0.245242 -0.693650 -0.592067
v -0.320425 -0.375401 -0.773574
v -0.320425 0.375401 -0.773574
v -0.245242 0.693650 -0.592068
v -0.138362 0.903126 -0.334035
v -0.000000 0.955596 -0.204551
v -0.000000 0.191342 -0.891503
v -0.000000 -0.191342 -0.891503
v 0.000000 -0.955596 -0.204551
v 0.144639 -0.955596 -0.144639
v 0.138362 -0.903126 -0.334035
v 0.245242 -0.693650 -0.592067
v 0.320425 -0.375401 -0.773574
v 0.320425 0.375401 -0.773574
v 0.245242 0.693650 -0.592068
v 0.138362 0.903126 -0.334035
v 0.204551 0.955596 -0.000000
v 0.144639 0.955596 0.144639
v 0.144639 -0.955596 0.144639
v -0.000000 0.955596 0.204551
v 0.000000 -0.955596 0.204551
v -0.144639 0.955596 0.144639
v -0.144639 -0.955596 0.144639
v -0.204551 0.955596 -0.000000
v -0.204551 -0.955596 0.000000
v -0.144639 0.955596 -0.144639
v -0.144639 -0.955596 -0.144639
v -0.346825 0.000000 -0.837310
v 0.000000 0.000000 -0.909140
v -0.000000 0.984142 -0.000000
v 0.250823 0.904712 -0.250823
v 0.454570 0.693651 -0.454570
v 0.593924 0.375401 -0.593924
v 0.642859 0.000000 -0.642859
v 0.593924 -0.375401 -0.593924
v 0.454570 -0.693650 -0.454570
v 0.250823 -0.904712 -0.250823
v 0.354718 0.904712 -0.000000
v 0.642859 0.693651 -0.000000
v 0.839936 0.375401 -0.000000
v 0.909140 0.000000 -0.000000
v 0.839936 -0.375401 -0.000000
v 0.642859 -0.693650 -0.000000
v 0.354718 -0.904712 -0.000000
v 0.000000 -0.984141 -0.000000
v 0.250823 0.904712 0.250823
v 0.454570 0.693651 0.454570
v 0.593924 0.375401 0.593924
v 0.642859 0.000000 0.642859
v 0.593924 -0.375401 0.593924
v 0.454570 -0.693650 0.454570
v 0.250823 -0.904712 0.250823
v -0.000000 0.904712 0.354718
v 0.000000 0.693651 0.642859
v 0.000000 0.375401 0.839936
v 0.000000 0.000000 0.909140
v 0.000000 -0.375401 0.839936
v 0.000000 -0.693650 0.642859
v 0.000000 -0.904712 0.354718
v -0.250823 0.904712 0.250823
v -0.454570 0.693651 0.454570
v -0.593924 0.375401 0.593924
v -0.642859 0.000000 0.642859
v -0.593924 -0.375401 0.593924
v -0.454570 -0.693650 0.454570
v -0.250823 -0.904712 0.250823
v -0.354718 0.904712 -0.000000
v -0.642859 0.693651 -0.000000
v -0.839936 0.375401 -0.000000
v -0.909140 0.000000 -0.000000
v -0.839936 -0.375401 -0.000000
v -0.642859 -0.693650 -0.000000
v -0.354718 -0.904712 -0.000000
v -0.250823 0.904712 -0.250823
v -0.454570 0.693651 -0.454570
v -0.593924 0.375401 -0.593924
v -0.642859 0.000000 -0.642859
v -0.593924 -0.375401 -0.593924
v -0.454570 -0.693650 -0.454570
v -0.250823 -0.904712 -0.250823
v -0.000000 0.904712 -0.354718
v -0.000000 0.693650 -0.642859
v -0.000000 0.375401 -0.839936
v -0.000000 -0.375401 -0.839936
v -0.000000 -0.693650 -0.642859
v -0.000000 -0.904712 -0.354718
vt 0.423555 0.181791
vt 0.398723 0.135409
vt 0.429748 0.147097
vt 0.463353 0.075852
vt 0.479829 0.122113
vt 0.483155 0.170497
vt 0.657465 0.099189
vt 0.608178 0.009597
vt 0.687044 0.004563
vt 0.714715 0.115955
vt 0.628039 0.181996
vt 0.584420 0.170576
vt 0.597663 0.095012
vt 0.813794 0.185507
vt 0.955634 0.173501
vt 0.851016 0.236486
vt 0.988838 0.255181
vt 0.876867 0.296280
vt 0.779103 0.333697
vt 0.759430 0.292085
vt 0.884393 0.434323
vt 0.941002 0.531455
vt 0.860286 0.506706
vt 0.821277 0.569683
vt 0.787830 0.488313
vt 0.533393 0.033637
vt 0.537126 0.103702
vt 0.536451 0.166751
vt 0.767592 0.145028
vt 0.765649 0.018859
vt 0.839655 0.052813
vt 0.702874 0.225105
vt 0.667469 0.200382
vt 0.999906 0.346407
vt 0.888956 0.363203
vt 0.985180 0.440669
vt 0.795408 0.431940
vt 0.791798 0.380358
vt 0.772006 0.612587
vt 0.869461 0.605469
vt 0.772649 0.649413
vt 0.728545 0.602443
vt 0.766422 0.546229
vt 0.730028 0.437484
vt 0.731890 0.482633
vt 0.725427 0.531005
vt 0.687898 0.485432
vt 0.483416 0.208988
vt 0.526962 0.215765
vt 0.565725 0.226439
vt 0.511862 0.254167
vt 0.652844 0.280905
vt 0.674871 0.305405
vt 0.612792 0.320673
vt 0.593070 0.301617
vt 0.627602 0.259472
vt 0.709755 0.363751
vt 0.722223 0.398232
vt 0.680935 0.448059
vt 0.671209 0.416340
vt 0.708255 0.579927
vt 0.681084 0.589511
vt 0.688986 0.531551
vt 0.418462 0.225126
vt 0.435875 0.205956
vt 0.471118 0.240266
vt 0.598917 0.241162
vt 0.570558 0.284139
vt 0.543931 0.268301
vt 0.693906 0.332915
vt 0.659256 0.388805
vt 0.645611 0.363982
vt 0.461536 0.267587
vt 0.494357 0.285379
vt 0.521391 0.301864
vt 0.474948 0.310966
vt 0.578006 0.352655
vt 0.592459 0.370938
vt 0.546767 0.379302
vt 0.532764 0.362808
vt 0.561832 0.335212
vt 0.618038 0.411219
vt 0.629735 0.434197
vt 0.640812 0.460769
vt 0.607171 0.475306
vt 0.594995 0.452180
vt 0.662036 0.577272
vt 0.646126 0.593522
vt 0.633434 0.540455
vt 0.659057 0.530811
vt 0.402477 0.255077
vt 0.422146 0.247152
vt 0.444128 0.287561
vt 0.543422 0.318379
vt 0.516999 0.346319
vt 0.498163 0.329238
vt 0.605708 0.390296
vt 0.583269 0.432072
vt 0.571571 0.413541
vt 0.651284 0.492475
vt 0.620216 0.502890
vt 0.627205 0.587523
vt 0.619100 0.606405
vt 0.590589 0.561834
vt 0.609621 0.546894
vt 0.380900 0.275554
vt 0.400354 0.275460
vt 0.429688 0.307674
vt 0.409411 0.320125
vt 0.490779 0.370400
vt 0.504740 0.386958
vt 0.463979 0.391698
vt 0.449257 0.372676
vt 0.474302 0.352532
vt 0.529131 0.419092
vt 0.540572 0.435401
vt 0.552112 0.452444
vt 0.523224 0.473148
vt 0.511375 0.456858
vt 0.577524 0.491360
vt 0.592865 0.515804
vt 0.568368 0.531300
vt 0.454138 0.332494
vt 0.431632 0.350658
vt 0.517355 0.403066
vt 0.488625 0.425100
vt 0.476776 0.408810
vt 0.564185 0.470668
vt 0.550743 0.509283
vt 0.536021 0.490261
vt 0.435815 0.411290
vt 0.447888 0.429515
vt 0.405005 0.429779
vt 0.392829 0.406653
vt 0.422476 0.390599
vt 0.470869 0.462867
vt 0.482644 0.478892
vt 0.495260 0.495001
vt 0.467236 0.519150
vt 0.453233 0.502657
vt 0.525698 0.529427
vt 0.545862 0.549465
vt 0.570311 0.574284
vt 0.525052 0.570992
vt 0.390379 0.335065
vt 0.407135 0.366155
vt 0.379784 0.379068
vt 0.459428 0.446557
vt 0.428429 0.468418
vt 0.416731 0.449887
vt 0.509221 0.511559
vt 0.501837 0.552721
vt 0.483001 0.535639
vt 0.599646 0.606498
vt 0.597523 0.626881
vt 0.555872 0.594398
vt 0.353874 0.288437
vt 0.372795 0.294436
vt 0.366566 0.341504
vt 0.340943 0.351148
vt 0.348716 0.389483
vt 0.359188 0.421189
vt 0.312102 0.396527
vt 0.394292 0.491662
vt 0.407541 0.511020
vt 0.354389 0.517976
vt 0.340744 0.493154
vt 0.381961 0.470740
vt 0.438168 0.546746
vt 0.456578 0.563580
vt 0.478608 0.580094
vt 0.456069 0.613657
vt 0.429442 0.597819
vt 0.577854 0.634807
vt 0.581538 0.656832
vt 0.528882 0.641692
vt 0.538464 0.614371
vt 0.318916 0.292448
vt 0.337964 0.304686
vt 0.311014 0.350407
vt 0.370265 0.447762
vt 0.328791 0.465618
vt 0.319065 0.433899
vt 0.421994 0.529304
vt 0.406930 0.580341
vt 0.387208 0.561285
vt 0.505643 0.596579
vt 0.488138 0.627791
vt 0.306094 0.549044
vt 0.325129 0.576553
vt 0.240570 0.589873
vt 0.220896 0.548262
vt 0.290245 0.518207
vt 0.372398 0.622487
vt 0.401083 0.640797
vt 0.434275 0.655520
vt 0.415579 0.711383
vt 0.371961 0.699963
vt 0.564125 0.676002
vt 0.576445 0.700168
vt 0.516845 0.711462
vt 0.516584 0.672970
vt 0.271455 0.279516
vt 0.291745 0.302032
vt 0.274573 0.350954
vt 0.233578 0.335729
vt 0.277777 0.483726
vt 0.208202 0.501600
vt 0.204592 0.450018
vt 0.269972 0.444474
vt 0.347156 0.601053
vt 0.332531 0.681577
vt 0.297126 0.656853
vt 0.473038 0.666194
vt 0.463549 0.715208
vt 0.268110 0.399326
vt 0.212170 0.393646
vt 0.227351 0.232546
vt 0.227994 0.269371
vt 0.178723 0.312275
vt 0.130539 0.276489
vt 0.111044 0.518755
vt 0.123133 0.585678
vt 0.000094 0.535551
vt 0.014820 0.441290
vt 0.115607 0.447636
vt 0.186206 0.696452
vt 0.232407 0.736930
vt 0.285285 0.766004
vt 0.234350 0.863099
vt 0.160344 0.829146
vt 0.402337 0.786947
vt 0.462874 0.778256
vt 0.520170 0.759845
vt 0.466607 0.848321
vt 0.139714 0.375253
vt 0.058999 0.350503
vt 0.148984 0.645473
vt 0.044366 0.708457
vt 0.011162 0.626777
vt 0.342535 0.782769
vt 0.391821 0.872362
vt 0.312956 0.877396
vt 0.570252 0.734861
vt 0.601277 0.746549
vt 0.536647 0.806106
vt 0.324918 0.193808
vt 0.904503 0.104876
vt 0.733709 0.255797
vt 0.675082 0.688151
vt 0.630160 0.341422
vt 0.559529 0.396110
vt 0.500000 0.440979
vt 0.440471 0.485849
vt 0.369840 0.540536
vt 0.266291 0.626162
vt 0.095497 0.777083
vn 0.0515 -0.9909 -0.1243
vn 0.0624 -0.9363 -0.3456
vn 0.2130 -0.9469 -0.2408
vn 0.1628 -0.5966 -0.7859
vn 0.1824 -0.4373 -0.8806
vn 0.4937 -0.4373 -0.7517
vn 0.4406 -0.5966 -0.6708
vn 0.2020 0.0899 -0.9753
vn 0.1956 0.2646 -0.9443
vn 0.5294 0.2646 -0.8060
vn 0.5468 0.0899 -0.8324
vn 0.1359 0.7424 -0.6561
vn 0.1080 0.8465 -0.5213
vn 0.2923 0.8465 -0.4450
vn 0.3678 0.7424 -0.5600
vn 0.1080 -0.8465 -0.5213
vn 0.1359 -0.7424 -0.6561
vn 0.3678 -0.7424 -0.5600
vn 0.2923 -0.8465 -0.4450
vn 0.1956 -0.2646 -0.9443
vn 0.2020 -0.0899 -0.9753
vn 0.5468 -0.0899 -0.8324
vn 0.5294 -0.2646 -0.8060
vn 0.1824 0.4373 -0.8806
vn 0.1628 0.5966 -0.7859
vn 0.4406 0.5966 -0.6708
vn 0.4937 0.4373 -0.7517
vn 0.0196 0.9469 -0.3209
vn 0.0515 0.9909 -0.1243
vn 0.2003 0.9363 -0.2885
vn 0.5600 0.7424 -0.3678
vn 0.4450 0.8465 -0.2923
vn 0.5213 0.8465 -0.1080
vn 0.6561 0.7424 -0.1359
vn 0.4450 -0.8465 -0.2923
vn 0.5600 -0.7424 -0.3678
vn 0.6561 -0.7424 -0.1359
vn 0.5213 -0.8465 -0.1080
vn 0.8060 -0.2646 -0.5294
vn 0.8324 -0.0899 -0.5468
vn 0.9753 -0.0899 -0.2020
vn 0.9443 -0.2646 -0.1956
vn 0.7517 0.4373 -0.4937
vn 0.6708 0.5966 -0.4406
vn 0.7859 0.5966 -0.1628
vn 0.8807 0.4373 -0.1824
vn 0.2407 0.9469 -0.2130
vn 0.1243 0.9909 -0.0515
vn 0.3456 0.9363 -0.0624
vn 0.1243 -0.9909 -0.0515
vn 0.2885 -0.9363 -0.2003
vn 0.3209 -0.9469 -0.0196
vn 0.6708 -0.5966 -0.4406
vn 0.7517 -0.4373 -0.4937
vn 0.8806 -0.4373 -0.1824
vn 0.7859 -0.5966 -0.1628
vn 0.8324 0.0899 -0.5468
vn 0.8060 0.2646 -0.5294
vn 0.9443 0.2646 -0.1956
vn 0.9753 0.0899 -0.2020
vn 0.5213 -0.8465 0.1080
vn 0.6561 -0.7424 0.1359
vn 0.5600 -0.7424 0.3678
vn 0.4450 -0.8465 0.2923
vn 0.9443 -0.2646 0.1956
vn 0.9753 -0.0899 0.2020
vn 0.8324 -0.0899 0.5468
vn 0.8060 -0.2646 0.5294
vn 0.8806 0.4373 0.1824
vn 0.7859 0.5966 0.1628
vn 0.6708 0.5966 0.4406
vn 0.7517 0.4373 0.4937
vn 0.3209 0.9469 0.0196
vn 0.1243 0.9909 0.0515
vn 0.2885 0.9363 0.2003
vn 0.1243 -0.9909 0.0515
vn 0.3456 -0.9363 0.0624
vn 0.2407 -0.9469 0.2130
vn 0.7859 -0.5966 0.1628
vn 0.8806 -0.4373 0.1824
vn 0.7517 -0.4373 0.4937
vn 0.6708 -0.5966 0.4406
vn 0.9753 0.0899 0.2020
vn 0.9443 0.2646 0.1956
vn 0.8060 0.2646 0.5294
vn 0.8324 0.0899 0.5468
vn 0.6561 0.7424 0.1359
vn 0.5213 0.8465 0.1080
vn 0.4450 0.8465 0.2923
vn 0.5600 0.7424 0.3678
vn 0.2130 0.9469 0.2407
vn 0.0515 0.9909 0.1243
vn 0.0624 0.9363 0.3456
vn 0.0515 -0.9909 0.1243
vn 0.2003 -0.9363 0.2885
vn 0.0196 -0.9469 0.3209
vn 0.4406 -0.5966 0.6708
vn 0.4937 -0.4373 0.7517
vn 0.1824 -0.4373 0.8807
vn 0.1628 -0.5966 0.7859
vn 0.5468 0.0899 0.8324
vn 0.5294 0.2646 0.8060
vn 0.1956 0.2646 0.9443
vn 0.2020 0.0899 0.9753
vn 0.3678 0.7424 0.5600
vn 0.2923 0.8465 0.4450
vn 0.1080 0.8465 0.5213
vn 0.1359 0.7424 0.6561
vn 0.2923 -0.8465 0.4450
vn 0.3678 -0.7424 0.5600
vn 0.1359 -0.7424 0.6561
vn 0.1080 -0.8465 0.5213
vn 0.5294 -0.2646 0.8060
vn 0.5468 -0.0899 0.8324
vn 0.2020 -0.0899 0.9753
vn 0.1956 -0.2646 0.9443
vn 0.4937 0.4373 0.7517
vn 0.4406 0.5966 0.6708
vn 0.1628 0.5966 0.7859
vn 0.1824 0.4373 0.8806
vn -0.1628 -0.5966 0.7859
vn -0.1824 -0.4373 0.8806
vn -0.4937 -0.4373 0.7517
vn -0.4406 -0.5966 0.6708
vn -0.2020 0.0899 0.9753
vn -0.1956 0.2646 0.9443
vn -0.5294 0.2646 0.8060
vn -0.5468 0.0899 0.8324
vn -0.1359 0.7424 0.6561
vn -0.1080 0.8465 0.5213
vn -0.2923 0.8465 0.4450
vn -0.3678 0.7424 0.5600
vn -0.1080 -0.8465 0.5213
vn -0.1359 -0.7424 0.6561
vn -0.3678 -0.7424 0.5600
vn -0.2923 -0.8465 0.4450
vn -0.1956 -0.2646 0.9443
vn -0.2020 -0.0899 0.9753
vn -0.5468 -0.0899 0.8324
vn -0.5294 -0.2646 0.8060
vn -0.1824 0.4373 0.8806
vn -0.1628 0.5966 0.7859
vn -0.4406 0.5966 0.6708
vn -0.4937 0.4373 0.7517
vn -0.0196 0.9469 0.3209
vn -0.0515 0.9909 0.1243
vn -0.2003 0.9363 0.2885
vn -0.0515 -0.9909 0.1243
vn -0.0624 -0.9363 0.3456
vn -0.2130 -0.9469 0.2407
vn -0.4450 -0.8465 0.2923
vn -0.5600 -0.7424 0.3678
vn -0.6561 -0.7424 0.1359
vn -0.5213 -0.8465 0.1080
vn -0.8060 -0.2646 0.5294
vn -0.8324 -0.0899 0.5468
vn -0.9753 -0.0899 0.2020
vn -0.9443 -0.2646 0.1956
vn -0.7517 0.4373 0.4937
vn -0.6708 0.5966 0.4406
vn -0.7859 0.5966 0.1628
vn -0.8806 0.4373 0.1824
vn -0.2407 0.9469 0.2130
vn -0.1243 0.9909 0.0515
vn -0.3456 0.9363 0.0624
vn -0.1243 -0.9909 0.0515
vn -0.2885 -0.9363 0.2003
vn -0.3209 -0.9469 0.0196
vn -0.6708 -0.5966 0.4406
vn -0.7517 -0.4373 0.4937
vn -0.8806 -0.4373 0.1824
vn -0.7859 -0.5966 0.1628
vn -0.8324 0.0899 0.5468
vn -0.8060 0.2646 0.5294
vn -0.9443 0.2646 0.1956
vn -0.9753 0.0899 0.2020
vn -0.5600 0.7424 0.3678
vn -0.4450 0.8465 0.2923
vn -0.5213 0.8465 0.1080
vn -0.6561 0.7424 0.1359
vn -0.9443 -0.2646 -0.1956
vn -0.9753 -0.0899 -0.2020
vn -0.8324 -0.0899 -0.5468
vn -0.8060 -0.2646 -0.5294
vn -0.8807 0.4373 -0.1824
vn -0.7859 0.5966 -0.1628
vn -0.6708 0.5966 -0.4406
vn -0.7517 0.4373 -0.4937
vn -0.3209 0.9469 -0.0196
vn -0.1243 0.9909 -0.0515
vn -0.2885 0.9363 -0.2003
vn -0.1243 -0.9909 -0.0515
vn -0.3456 -0.9363 -0.0624
vn -0.2407 -0.9469 -0.2130
vn -0.7859 -0.5966 -0.1628
vn -0.8806 -0.4373 -0.1824
vn -0.7517 -0.4373 -0.4937
vn -0.6708 -0.5966 -0.4406
vn -0.9753 0.0899 -0.2020
vn -0.9443 0.2646 -0.1956
vn -0.8060 0.2646 -0.5294
vn -0.8324 0.0899 -0.5468
vn -0.6561 0.7424 -0.1359
vn -0.5213 0.8465 -0.1080
vn -0.4450 0.8465 -0.2923
vn -0.5600 0.7424 -0.3678
vn -0.5213 -0.8465 -0.1080
vn -0.6561 -0.7424 -0.1359
vn -0.5600 -0.7424 -0.3678
vn -0.4450 -0.8465 -0.2923
vn -0.0515 -0.9909 -0.1243
vn -0.2003 -0.9363 -0.2885
vn -0.0196 -0.9469 -0.3209
vn -0.4406 -0.5966 -0.6708
vn -0.4937 -0.4373 -0.7517
vn -0.1824 -0.4373 -0.8806
vn -0.1628 -0.5966 -0.7859
vn -0.5468 0.0899 -0.8324
vn -0.5294 0.2646 -0.8060
vn -0.1956 0.2646 -0.9443
vn -0.2020 0.0899 -0.9753
vn -0.3678 0.7424 -0.5600
vn -0.2923 0.8465 -0.4450
vn -0.1080 0.8465 -0.5213
vn -0.1359 0.7424 -0.6561
vn -0.2923 -0.8465 -0.4450
vn -0.3678 -0.7424 -0.5600
vn -0.1359 -0.7424 -0.6561
vn -0.1080 -0.8465 -0.5213
vn -0.5294 -0.2646 -0.8060
vn -0.5468 -0.0899 -0.8324
vn -0.2020 -0.0899 -0.9753
vn -0.1956 -0.2646 -0.9443
vn -0.4937 0.4373 -0.7517
vn -0.4406 0.5966 -0.6708
vn -0.1628 0.5966 -0.7859
vn -0.1824 0.4373 -0.8806
vn -0.2130 0.9469 -0.2407
vn -0.0515 0.9909 -0.1243
vn -0.0624 0.9363 -0.3456
vn 0.0572 -0.9888 -0.1380
vn 0.0196 -0.9469 -0.3209
vn 0.2003 -0.9363 -0.2885
vn 0.0859 0.8567 -0.5086
vn 0.2989 0.8567 -0.4204
vn 0.0858 -0.8567 -0.5086
vn 0.2989 -0.8567 -0.4204
vn 0.1824 0.4373 -0.8807
vn 0.0624 0.9363 -0.3456
vn 0.0572 0.9888 -0.1380
vn 0.2130 0.9469 -0.2407
vn 0.4204 0.8567 -0.2989
vn 0.5086 0.8567 -0.0858
vn 0.4204 -0.8567 -0.2989
vn 0.5086 -0.8567 -0.0858
vn 0.2885 0.9363 -0.2003
vn 0.1380 0.9888 -0.0572
vn 0.3209 0.9469 -0.0196
vn 0.1380 -0.9888 -0.0572
vn 0.2407 -0.9469 -0.2130
vn 0.3456 -0.9363 -0.0624
vn 0.8807 -0.4373 -0.1824
vn 0.5086 -0.8567 0.0858
vn 0.4204 -0.8567 0.2989
vn 0.8807 0.4373 0.1824
vn 0.3456 0.9363 0.0624
vn 0.1380 0.9888 0.0572
vn 0.2407 0.9469 0.2130
vn 0.1380 -0.9888 0.0572
vn 0.3209 -0.9469 0.0196
vn 0.2885 -0.9363 0.2003
vn 0.8807 -0.4373 0.1824
vn 0.5086 0.8567 0.0858
vn 0.4204 0.8567 0.2989
vn 0.2003 0.9363 0.2885
vn 0.0572 0.9888 0.1380
vn 0.0196 0.9469 0.3209
vn 0.0572 -0.9888 0.1380
vn 0.2130 -0.9469 0.2407
vn 0.0624 -0.9363 0.3456
vn 0.1824 -0.4373 0.8806
vn 0.2989 0.8567 0.4204
vn 0.0859 0.8567 0.5086
vn 0.2989 -0.8567 0.4204
vn 0.0859 -0.8567 0.5086
vn -0.1824 -0.4373 0.8807
vn -0.0859 0.8567 0.5086
vn -0.2989 0.8567 0.4204
vn -0.0858 -0.8567 0.5086
vn -0.2989 -0.8567 0.4204
vn -0.0624 0.9363 0.3456
vn -0.0572 0.9888 0.1380
vn -0.2130 0.9469 0.2407
vn -0.0572 -0.9888 0.1380
vn -0.0196 -0.9469 0.3209
vn -0.2003 -0.9363 0.2885
vn -0.4204 -0.8567 0.2989
vn -0.5086 -0.8567 0.0858
vn -0.2885 0.9363 0.2003
vn -0.1380 0.9888 0.0572
vn -0.3209 0.9469 0.0196
vn -0.1380 -0.9888 0.0572
vn -0.2407 -0.9469 0.2130
vn -0.3456 -0.9363 0.0624
vn -0.4204 0.8567 0.2989
vn -0.5086 0.8567 0.0859
vn -0.8806 0.4373 -0.1824
vn -0.3456 0.9363 -0.0624
vn -0.1380 0.9888 -0.0572
vn -0.2407 0.9469 -0.2130
vn -0.1380 -0.9888 -0.0572
vn -0.3209 -0.9469 -0.0196
vn -0.2885 -0.9363 -0.2003
vn -0.5086 0.8567 -0.0859
vn -0.4204 0.8567 -0.2989
vn -0.5086 -0.8567 -0.0858
vn -0.4204 -0.8567 -0.2989
vn -0.0572 -0.9888 -0.1380
vn -0.2130 -0.9469 -0.2407
vn -0.0624 -0.9363 -0.3456
vn -0.1824 -0.4373 -0.8807
vn -0.2989 0.8567 -0.4204
vn -0.0858 0.8567 -0.5086
vn -0.2989 -0.8567 -0.4204
vn -0.0858 -0.8567 -0.5086
vn -0.1824 0.4373 -0.8807
vn -0.2003 0.9363 -0.2885
vn -0.0572 0.9888 -0.1380
vn -0.0196 0.9469 -0.3209
usemtl None
s off
f 166/1/1 165/2/1 1/3/1
f 1/3/2 242/4/2 167/5/2
f 1/3/3 193/6/3 166/1/3
f 2/7/4 241/8/4 154/9/4
f 154/9/5 169/10/5 2/7/5
f 169/10/6 70/11/6 2/7/6
f 2/7/7 192/12/7 168/13/7
f 72/14/8 163/15/8 3/16/8
f 3/16/9 239/17/9 170/18/9
f 3/16/10 189/19/10 68/20/10
f 68/20/11 72/14/11 3/16/11
f 171/21/12 152/22/12 4/23/12
f 152/22/13 172/24/13 4/23/13
f 172/24/14 66/25/14 4/23/14
f 66/25/15 171/21/15 4/23/15
f 167/5/16 155/26/16 5/27/16
f 155/26/17 168/13/17 5/27/17
f 168/13/18 71/28/18 5/27/18
f 71/28/19 167/5/19 5/27/19
f 6/29/20 240/30/20 164/31/20
f 164/31/21 72/14/21 6/29/21
f 72/14/22 69/32/22 6/29/22
f 6/29/23 191/33/23 169/10/23
f 170/18/24 153/34/24 7/35/24
f 7/35/25 238/36/25 171/21/25
f 7/35/26 188/37/26 67/38/26
f 67/38/27 170/18/27 7/35/27
f 8/39/28 237/40/28 162/41/28
f 162/41/29 65/42/29 8/39/29
f 8/39/30 187/43/30 172/24/30
f 80/44/31 66/25/31 9/45/31
f 66/25/32 81/46/32 9/45/32
f 81/46/33 73/47/33 9/45/33
f 73/47/34 80/44/34 9/45/34
f 82/48/35 71/28/35 10/49/35
f 71/28/36 83/50/36 10/49/36
f 83/50/37 78/51/37 10/49/37
f 78/51/38 82/48/38 10/49/38
f 11/52/39 191/33/39 69/32/39
f 69/32/40 85/53/40 11/52/40
f 85/53/41 76/54/41 11/52/41
f 11/52/42 198/55/42 84/56/42
f 86/57/43 67/38/43 12/58/43
f 12/58/44 188/37/44 80/44/44
f 12/58/45 195/59/45 74/60/45
f 74/60/46 86/57/46 12/58/46
f 13/61/47 187/43/47 65/42/47
f 65/42/48 173/62/48 13/61/48
f 13/61/49 194/63/49 81/46/49
f 79/64/50 166/1/50 14/65/50
f 14/65/51 193/6/51 82/48/51
f 14/65/52 200/66/52 79/64/52
f 15/67/53 192/12/53 70/11/53
f 70/11/54 84/56/54 15/67/54
f 84/56/55 77/68/55 15/67/55
f 15/67/56 199/69/56 83/50/56
f 85/53/57 68/20/57 16/70/57
f 16/70/58 189/19/58 86/57/58
f 16/70/59 196/71/59 75/72/59
f 75/72/60 85/53/60 16/70/60
f 93/73/61 78/51/61 17/74/61
f 78/51/62 94/75/62 17/74/62
f 94/75/63 92/76/63 17/74/63
f 92/76/64 93/73/64 17/74/64
f 18/77/65 198/55/65 76/54/65
f 76/54/66 96/78/66 18/77/66
f 96/78/67 90/79/67 18/77/67
f 18/77/68 206/80/68 95/81/68
f 97/82/69 74/60/69 19/83/69
f 19/83/70 195/59/70 98/84/70
f 19/83/71 203/85/71 88/86/71
f 88/86/72 97/82/72 19/83/72
f 20/87/73 194/63/73 173/62/73
f 173/62/74 174/88/74 20/87/74
f 20/87/75 202/89/75 99/90/75
f 175/91/76 79/64/76 21/92/76
f 21/92/77 200/66/77 93/73/77
f 21/92/78 208/93/78 175/91/78
f 22/94/79 199/69/79 77/68/79
f 77/68/80 95/81/80 22/94/80
f 95/81/81 91/95/81 22/94/81
f 22/94/82 207/96/82 94/75/82
f 96/78/83 75/72/83 23/97/83
f 23/97/84 196/71/84 97/82/84
f 23/97/85 204/98/85 89/99/85
f 89/99/86 96/78/86 23/97/86
f 98/84/87 73/47/87 24/100/87
f 73/47/88 99/90/88 24/100/88
f 99/90/89 87/101/89 24/100/89
f 87/101/90 98/84/90 24/100/90
f 25/102/91 202/89/91 174/88/91
f 174/88/92 176/103/92 25/102/92
f 25/102/93 209/104/93 106/105/93
f 177/106/94 175/91/94 26/107/94
f 26/107/95 208/93/95 107/108/95
f 26/107/96 215/109/96 177/106/96
f 27/110/97 207/96/97 91/95/97
f 91/95/98 109/111/98 27/110/98
f 109/111/99 104/112/99 27/110/99
f 27/110/100 214/113/100 108/114/100
f 110/115/101 89/99/101 28/116/101
f 28/116/102 204/98/102 111/117/102
f 28/116/103 211/118/103 102/119/103
f 102/119/104 110/115/104 28/116/104
f 112/120/105 87/101/105 29/121/105
f 87/101/106 106/105/106 29/121/106
f 106/105/107 100/122/107 29/121/107
f 100/122/108 112/120/108 29/121/108
f 107/108/109 92/76/109 30/123/109
f 92/76/110 108/114/110 30/123/110
f 108/114/111 105/124/111 30/123/111
f 105/124/112 107/108/112 30/123/112
f 31/125/113 206/80/113 90/79/113
f 90/79/114 110/115/114 31/125/114
f 110/115/115 103/126/115 31/125/115
f 31/125/116 213/127/116 109/111/116
f 111/117/117 88/86/117 32/128/117
f 32/128/118 203/85/118 112/120/118
f 32/128/119 210/129/119 101/130/119
f 101/130/120 111/117/120 32/128/120
f 33/131/121 214/113/121 104/112/121
f 104/112/122 120/132/122 33/131/122
f 120/132/123 117/133/123 33/131/123
f 33/131/124 221/134/124 119/135/124
f 121/136/125 102/119/125 34/137/125
f 34/137/126 211/118/126 122/138/126
f 34/137/127 218/139/127 115/140/127
f 115/140/128 121/136/128 34/137/128
f 123/141/129 100/122/129 35/142/129
f 100/122/130 124/143/130 35/142/130
f 124/143/131 113/144/131 35/142/131
f 113/144/132 123/141/132 35/142/132
f 125/145/133 105/124/133 36/146/133
f 105/124/134 119/135/134 36/146/134
f 119/135/135 118/147/135 36/146/135
f 118/147/136 125/145/136 36/146/136
f 37/148/137 213/127/137 103/126/137
f 103/126/138 121/136/138 37/148/138
f 121/136/139 116/149/139 37/148/139
f 37/148/140 220/150/140 120/132/140
f 122/138/141 101/130/141 38/151/141
f 38/151/142 210/129/142 123/141/142
f 38/151/143 217/152/143 114/153/143
f 114/153/144 122/138/144 38/151/144
f 39/154/145 209/104/145 176/103/145
f 176/103/146 178/155/146 39/154/146
f 39/154/147 216/156/147 124/143/147
f 179/157/148 177/106/148 40/158/148
f 40/158/149 215/109/149 125/145/149
f 40/158/150 222/159/150 179/157/150
f 132/160/151 118/147/151 41/161/151
f 118/147/152 133/162/152 41/161/152
f 133/162/153 131/163/153 41/161/153
f 131/163/154 132/160/154 41/161/154
f 42/164/155 220/150/155 116/149/155
f 116/149/156 135/165/156 42/164/156
f 135/165/157 129/166/157 42/164/157
f 42/164/158 227/167/158 134/168/158
f 136/169/159 114/153/159 43/170/159
f 43/170/160 217/152/160 137/171/160
f 43/170/161 224/172/161 127/173/161
f 127/173/162 136/169/162 43/170/162
f 44/174/163 216/156/163 178/155/163
f 178/155/164 180/175/164 44/174/164
f 44/174/165 223/176/165 138/177/165
f 181/178/166 179/157/166 45/179/166
f 45/179/167 222/159/167 132/160/167
f 45/179/168 229/180/168 181/178/168
f 46/181/169 221/134/169 117/133/169
f 117/133/170 134/168/170 46/181/170
f 134/168/171 130/182/171 46/181/171
f 46/181/172 228/183/172 133/162/172
f 135/165/173 115/140/173 47/184/173
f 47/184/174 218/139/174 136/169/174
f 47/184/175 225/185/175 128/186/175
f 128/186/176 135/165/176 47/184/176
f 137/171/177 113/144/177 48/187/177
f 113/144/178 138/177/178 48/187/178
f 138/177/179 126/188/179 48/187/179
f 126/188/180 137/171/180 48/187/180
f 49/189/181 227/167/181 129/166/181
f 129/166/182 146/190/182 49/189/182
f 146/190/183 142/191/183 49/189/183
f 49/189/184 234/192/184 145/193/184
f 147/194/185 127/173/185 50/195/185
f 50/195/186 224/172/186 148/196/186
f 50/195/187 231/197/187 140/198/187
f 140/198/188 147/194/188 50/195/188
f 51/199/189 223/176/189 180/175/189
f 180/175/190 182/200/190 51/199/190
f 51/199/191 230/201/191 149/202/191
f 183/203/192 181/178/192 52/204/192
f 52/204/193 229/180/193 150/205/193
f 52/204/194 236/206/194 183/203/194
f 53/207/195 228/183/195 130/182/195
f 130/182/196 145/193/196 53/207/196
f 145/193/197 143/208/197 53/207/197
f 53/207/198 235/209/198 151/210/198
f 146/190/199 128/186/199 54/211/199
f 54/211/200 225/185/200 147/194/200
f 54/211/201 232/212/201 141/213/201
f 141/213/202 146/190/202 54/211/202
f 148/196/203 126/188/203 55/214/203
f 126/188/204 149/202/204 55/214/204
f 149/202/205 139/215/205 55/214/205
f 139/215/206 148/196/206 55/214/206
f 150/205/207 131/163/207 56/216/207
f 131/163/208 151/210/208 56/216/208
f 151/210/209 144/217/209 56/216/209
f 144/217/210 150/205/210 56/216/210
f 165/218/211 183/203/211 57/219/211
f 57/219/212 236/206/212 156/220/212
f 57/219/213 242/221/213 165/218/213
f 58/222/214 235/209/214 143/208/214
f 143/208/215 158/223/215 58/222/215
f 158/223/216 154/224/216 58/222/216
f 58/222/217 241/225/217 157/226/217
f 184/227/218 141/213/218 59/228/218
f 59/228/219 232/212/219 159/229/219
f 59/228/220 239/230/220 163/231/220
f 163/231/221 184/227/221 59/228/221
f 160/232/222 139/215/222 60/233/222
f 139/215/223 161/234/223 60/233/223
f 161/234/224 152/235/224 60/233/224
f 152/235/225 160/232/225 60/233/225
f 156/220/226 144/217/226 61/236/226
f 144/217/227 157/226/227 61/236/227
f 157/226/228 155/237/228 61/236/228
f 155/237/229 156/220/229 61/236/229
f 62/238/230 234/192/230 142/191/230
f 142/191/231 184/227/231 62/238/231
f 184/227/232 164/239/232 62/238/232
f 62/238/233 240/240/233 158/223/233
f 159/229/234 140/198/234 63/241/234
f 63/241/235 231/197/235 160/232/235
f 63/241/236 238/242/236 153/243/236
f 153/243/237 159/229/237 63/241/237
f 64/244/238 230/201/238 182/200/238
f 182/200/239 162/245/239 64/244/239
f 64/244/240 237/246/240 161/234/240
f 166/1/241 201/247/241 165/2/241
f 1/3/242 165/2/242 242/4/242
f 1/3/243 167/5/243 193/6/243
f 2/7/4 168/13/4 241/8/4
f 154/9/5 240/30/5 169/10/5
f 169/10/6 191/33/6 70/11/6
f 2/7/7 70/11/7 192/12/7
f 72/14/8 185/248/8 163/15/8
f 3/16/9 163/15/9 239/17/9
f 3/16/10 170/18/10 189/19/10
f 68/20/11 190/249/11 72/14/11
f 171/21/12 238/36/12 152/22/12
f 152/22/244 237/40/244 172/24/244
f 172/24/245 187/43/245 66/25/245
f 66/25/15 188/37/15 171/21/15
f 167/5/246 242/4/246 155/26/246
f 155/26/17 241/8/17 168/13/17
f 168/13/18 192/12/18 71/28/18
f 71/28/247 193/6/247 167/5/247
f 6/29/20 169/10/20 240/30/20
f 164/31/21 185/248/21 72/14/21
f 72/14/22 190/249/22 69/32/22
f 6/29/23 69/32/23 191/33/23
f 170/18/248 239/17/248 153/34/248
f 7/35/25 153/34/25 238/36/25
f 7/35/26 171/21/26 188/37/26
f 67/38/27 189/19/27 170/18/27
f 8/39/249 172/24/249 237/40/249
f 162/41/250 186/250/250 65/42/250
f 8/39/251 65/42/251 187/43/251
f 80/44/31 188/37/31 66/25/31
f 66/25/252 187/43/252 81/46/252
f 81/46/253 194/63/253 73/47/253
f 73/47/34 195/59/34 80/44/34
f 82/48/254 193/6/254 71/28/254
f 71/28/36 192/12/36 83/50/36
f 83/50/37 199/69/37 78/51/37
f 78/51/255 200/66/255 82/48/255
f 11/52/39 84/56/39 191/33/39
f 69/32/40 190/249/40 85/53/40
f 85/53/41 197/251/41 76/54/41
f 11/52/42 76/54/42 198/55/42
f 86/57/43 189/19/43 67/38/43
f 12/58/44 67/38/44 188/37/44
f 12/58/45 80/44/45 195/59/45
f 74/60/46 196/71/46 86/57/46
f 13/61/256 81/46/256 187/43/256
f 65/42/257 186/250/257 173/62/257
f 13/61/258 173/62/258 194/63/258
f 79/64/259 201/247/259 166/1/259
f 14/65/260 166/1/260 193/6/260
f 14/65/261 82/48/261 200/66/261
f 15/67/53 83/50/53 192/12/53
f 70/11/54 191/33/54 84/56/54
f 84/56/262 198/55/262 77/68/262
f 15/67/56 77/68/56 199/69/56
f 85/53/57 190/249/57 68/20/57
f 16/70/58 68/20/58 189/19/58
f 16/70/59 86/57/59 196/71/59
f 75/72/60 197/251/60 85/53/60
f 93/73/263 200/66/263 78/51/263
f 78/51/62 199/69/62 94/75/62
f 94/75/63 207/96/63 92/76/63
f 92/76/264 208/93/264 93/73/264
f 18/77/65 95/81/65 198/55/65
f 76/54/66 197/251/66 96/78/66
f 96/78/67 205/252/67 90/79/67
f 18/77/68 90/79/68 206/80/68
f 97/82/265 196/71/265 74/60/265
f 19/83/70 74/60/70 195/59/70
f 19/83/71 98/84/71 203/85/71
f 88/86/72 204/98/72 97/82/72
f 20/87/266 99/90/266 194/63/266
f 173/62/267 186/250/267 174/88/267
f 20/87/268 174/88/268 202/89/268
f 175/91/269 201/247/269 79/64/269
f 21/92/270 79/64/270 200/66/270
f 21/92/271 93/73/271 208/93/271
f 22/94/79 94/75/79 199/69/79
f 77/68/272 198/55/272 95/81/272
f 95/81/81 206/80/81 91/95/81
f 22/94/82 91/95/82 207/96/82
f 96/78/83 197/251/83 75/72/83
f 23/97/84 75/72/84 196/71/84
f 23/97/85 97/82/85 204/98/85
f 89/99/86 205/252/86 96/78/86
f 98/84/87 195/59/87 73/47/87
f 73/47/273 194/63/273 99/90/273
f 99/90/274 202/89/274 87/101/274
f 87/101/90 203/85/90 98/84/90
f 25/102/275 106/105/275 202/89/275
f 174/88/276 186/250/276 176/103/276
f 25/102/277 176/103/277 209/104/277
f 177/106/278 201/247/278 175/91/278
f 26/107/279 175/91/279 208/93/279
f 26/107/280 107/108/280 215/109/280
f 27/110/97 108/114/97 207/96/97
f 91/95/98 206/80/98 109/111/98
f 109/111/281 213/127/281 104/112/281
f 27/110/100 104/112/100 214/113/100
f 110/115/101 205/252/101 89/99/101
f 28/116/102 89/99/102 204/98/102
f 28/116/103 111/117/103 211/118/103
f 102/119/104 212/253/104 110/115/104
f 112/120/105 203/85/105 87/101/105
f 87/101/282 202/89/282 106/105/282
f 106/105/283 209/104/283 100/122/283
f 100/122/108 210/129/108 112/120/108
f 107/108/284 208/93/284 92/76/284
f 92/76/110 207/96/110 108/114/110
f 108/114/111 214/113/111 105/124/111
f 105/124/285 215/109/285 107/108/285
f 31/125/113 109/111/113 206/80/113
f 90/79/114 205/252/114 110/115/114
f 110/115/115 212/253/115 103/126/115
f 31/125/116 103/126/116 213/127/116
f 111/117/117 204/98/117 88/86/117
f 32/128/118 88/86/118 203/85/118
f 32/128/119 112/120/119 210/129/119
f 101/130/120 211/118/120 111/117/120
f 33/131/121 119/135/121 214/113/121
f 104/112/286 213/127/286 120/132/286
f 120/132/123 220/150/123 117/133/123
f 33/131/124 117/133/124 221/134/124
f 121/136/125 212/253/125 102/119/125
f 34/137/126 102/119/126 211/118/126
f 34/137/127 122/138/127 218/139/127
f 115/140/128 219/254/128 121/136/128
f 123/141/129 210/129/129 100/122/129
f 100/122/287 209/104/287 124/143/287
f 124/143/288 216/156/288 113/144/288
f 113/144/132 217/152/132 123/141/132
f 125/145/289 215/109/289 105/124/289
f 105/124/134 214/113/134 119/135/134
f 119/135/135 221/134/135 118/147/135
f 118/147/290 222/159/290 125/145/290
f 37/148/137 120/132/137 213/127/137
f 103/126/138 212/253/138 121/136/138
f 121/136/139 219/254/139 116/149/139
f 37/148/140 116/149/140 220/150/140
f 122/138/141 211/118/141 101/130/141
f 38/151/142 101/130/142 210/129/142
f 38/151/143 123/141/143 217/152/143
f 114/153/144 218/139/144 122/138/144
f 39/154/291 124/143/291 209/104/291
f 176/103/292 186/250/292 178/155/292
f 39/154/293 178/155/293 216/156/293
f 179/157/294 201/247/294 177/106/294
f 40/158/295 177/106/295 215/109/295
f 40/158/296 125/145/296 222/159/296
f 132/160/297 222/159/297 118/147/297
f 118/147/152 221/134/152 133/162/152
f 133/162/153 228/183/153 131/163/153
f 131/163/298 229/180/298 132/160/298
f 42/164/155 134/168/155 220/150/155
f 116/149/156 219/254/156 135/165/156
f 135/165/157 226/255/157 129/166/157
f 42/164/158 129/166/158 227/167/158
f 136/169/159 218/139/159 114/153/159
f 43/170/160 114/153/160 217/152/160
f 43/170/161 137/171/161 224/172/161
f 127/173/162 225/185/162 136/169/162
f 44/174/299 138/177/299 216/156/299
f 178/155/300 186/250/300 180/175/300
f 44/174/301 180/175/301 223/176/301
f 181/178/302 201/247/302 179/157/302
f 45/179/303 179/157/303 222/159/303
f 45/179/304 132/160/304 229/180/304
f 46/181/169 133/162/169 221/134/169
f 117/133/170 220/150/170 134/168/170
f 134/168/171 227/167/171 130/182/171
f 46/181/172 130/182/172 228/183/172
f 135/165/173 219/254/173 115/140/173
f 47/184/174 115/140/174 218/139/174
f 47/184/175 136/169/175 225/185/175
f 128/186/176 226/255/176 135/165/176
f 137/171/177 217/152/177 113/144/177
f 113/144/305 216/156/305 138/177/305
f 138/177/306 223/176/306 126/188/306
f 126/188/180 224/172/180 137/171/180
f 49/189/181 145/193/181 227/167/181
f 129/166/182 226/255/182 146/190/182
f 146/190/183 233/256/183 142/191/183
f 49/189/184 142/191/184 234/192/184
f 147/194/307 225/185/307 127/173/307
f 50/195/186 127/173/186 224/172/186
f 50/195/187 148/196/187 231/197/187
f 140/198/188 232/212/188 147/194/188
f 51/199/308 149/202/308 223/176/308
f 180/175/309 186/250/309 182/200/309
f 51/199/310 182/200/310 230/201/310
f 183/203/311 201/247/311 181/178/311
f 52/204/312 181/178/312 229/180/312
f 52/204/313 150/205/313 236/206/313
f 53/207/195 151/210/195 228/183/195
f 130/182/196 227/167/196 145/193/196
f 145/193/197 234/192/197 143/208/197
f 53/207/198 143/208/198 235/209/198
f 146/190/199 226/255/199 128/186/199
f 54/211/200 128/186/200 225/185/200
f 54/211/201 147/194/201 232/212/201
f 141/213/202 233/256/202 146/190/202
f 148/196/203 224/172/203 126/188/203
f 126/188/314 223/176/314 149/202/314
f 149/202/315 230/201/315 139/215/315
f 139/215/206 231/197/206 148/196/206
f 150/205/316 229/180/316 131/163/316
f 131/163/208 228/183/208 151/210/208
f 151/210/209 235/209/209 144/217/209
f 144/217/317 236/206/317 150/205/317
f 165/218/318 201/247/318 183/203/318
f 57/219/319 183/203/319 236/206/319
f 57/219/320 156/220/320 242/221/320
f 58/222/214 157/226/214 235/209/214
f 143/208/215 234/192/215 158/223/215
f 158/223/321 240/240/321 154/224/321
f 58/222/217 154/224/217 241/225/217
f 184/227/218 233/256/218 141/213/218
f 59/228/219 141/213/219 232/212/219
f 59/228/220 159/229/220 239/230/220
f 163/231/221 185/257/221 184/227/221
f 160/232/222 231/197/222 139/215/222
f 139/215/322 230/201/322 161/234/322
f 161/234/323 237/246/323 152/235/323
f 152/235/225 238/242/225 160/232/225
f 156/220/324 236/206/324 144/217/324
f 144/217/227 235/209/227 157/226/227
f 157/226/228 241/225/228 155/237/228
f 155/237/325 242/221/325 156/220/325
f 62/238/230 158/223/230 234/192/230
f 142/191/231 233/256/231 184/227/231
f 184/227/232 185/257/232 164/239/232
f 62/238/233 164/239/233 240/240/233
f 159/229/234 232/212/234 140/198/234
f 63/241/235 140/198/235 231/197/235
f 63/241/236 160/232/236 238/242/236
f 153/243/326 239/230/326 159/229/326
f 64/244/327 161/234/327 230/201/327
f 182/200/328 186/250/328 162/245/328
f 64/244/329 162/245/329 237/246/329
