# Blender MTL File: 'None'
# Material Count: 1

newmtl height10
Ns 96.078431
Ka 1.000000 1.000000 1.000000
Kd 0.800000 0.800000 0.800000
Ks 0.000000 0.000000 0.000000
Ke 0.000000 0.000000 0.000000
Ni 1.000000
d 0.000000
illum 1
map_Kd /home/nataniel/imt2531_graphics_programming/imt2531_graphics_exam/resources/heightmap/height10.png
map_d /home/nataniel/imt2531_graphics_programming/imt2531_graphics_exam/resources/heightmap/height10.png
